15.6.3 Creating a pattern with code
…
A pattern is created by using Turkish names data-set and these are investigated in babynames data-set. The computational time took a bit long but finally the mission is accomplished and a frequency table of names is generated.

pattern <- str_c("\\b(", str_flatten(turkce, "|"), ")\\b")

babynames |> 
  group_by(name) |> 
  filter(str_detect(name, pattern)) |> 
  count(name, wt = n, sort = TRUE)

# A tibble: 250 x 2
# Groups:   name [250]
   name           n
   <chr>      <int>
 1 Maria     547562
 2 Diana     358861
 3 Hazel     258118
 4 Esmeralda  45101
 5 Ali        35598
 6 Selma      26629
 7 Ayla       18335
 8 Ibrahim    11543
 9 Aylin      10872
10 Yusuf       6984
# i 240 more rows

Last but not least, I noticed that first four name is not very common in Türkiye so these names are filtered from our pattern. Finally, the Turkish name table is obtained with their frequencies and Ali is defined as the most common name. Surprisingly, my name is not in first ten names although it is the most used name in Türkiye. Mehmet is seventy second with 653 frequency in our final list among 246 Turkish names.

turkce<- turkce[!str_detect(turkce, str_flatten(c("Maria", "Diana", "Hazel", "Esmeralda"), "|"))]

pattern <- str_c("\\b(", str_flatten(turkce, "|"), ")\\b")

babynames |> 
  group_by(name) |> 
  filter(str_detect(name, pattern)) |> 
  count(name, wt = n, sort = TRUE)

# A tibble: 246 x 2
# Groups:   name [246]
   name         n
   <chr>    <int>
 1 Ali      35598
 2 Selma    26629
 3 Ayla     18335
 4 Ibrahim  11543
 5 Aylin    10872
 6 Yusuf     6984
 7 Abdullah  6875
 8 Leyla     6787
 9 Hamza     6783
10 Nevin     6083
# i 236 more rows
…
